EESchema Schematic File Version 2
LIBS:power
LIBS:device
LIBS:transistors
LIBS:conn
LIBS:linear
LIBS:regul
LIBS:74xx
LIBS:cmos4000
LIBS:adc-dac
LIBS:memory
LIBS:xilinx
LIBS:microcontrollers
LIBS:dsp
LIBS:microchip
LIBS:analog_switches
LIBS:motorola
LIBS:texas
LIBS:intel
LIBS:audio
LIBS:interface
LIBS:digital-audio
LIBS:philips
LIBS:display
LIBS:cypress
LIBS:siliconi
LIBS:opto
LIBS:atmel
LIBS:contrib
LIBS:valves
LIBS:NorBot
LIBS:usbab
LIBS:atmega32u4
LIBS:atmega32u4new
LIBS:circuito2-cache
EELAYER 26 0
EELAYER END
$Descr A4 11693 8268
encoding utf-8
Sheet 1 1
Title "Arduino PRO"
Date "2017-02-12"
Rev ""
Comp "UFAL-IC"
Comment1 ""
Comment2 ""
Comment3 ""
Comment4 ""
$EndDescr
$Comp
L CONN_01X12 P1
U 1 1 58A0E86C
P 2300 6000
F 0 "P1" H 2378 6041 50  0000 L CNN
F 1 "CONN_01X12" H 2378 5950 50  0000 L CNN
F 2 "Socket_Strips:Socket_Strip_Straight_1x12_Pitch1.27mm" H -750 3400 50  0001 C CNN
F 3 "" H -750 3400 50  0000 C CNN
	1    2300 6000
	1    0    0    -1  
$EndComp
$Comp
L CONN_01X12 P2
U 1 1 58A0E92E
P 4050 6000
F 0 "P2" H 4128 6041 50  0000 L CNN
F 1 "CONN_01X12" H 4128 5950 50  0000 L CNN
F 2 "Socket_Strips:Socket_Strip_Straight_1x12_Pitch1.27mm" H 1000 3400 50  0001 C CNN
F 3 "" H 1000 3400 50  0000 C CNN
	1    4050 6000
	1    0    0    -1  
$EndComp
$Comp
L MIC5219 U1
U 1 1 58A3B6AB
P 3300 1750
F 0 "U1" H 3300 2237 60  0000 C CNN
F 1 "MIC5219" H 3300 2131 60  0000 C CNN
F 2 "TO_SOT_Packages_SMD:SOT-23-5" H -3400 -350 60  0001 C CNN
F 3 "" H -3400 -350 60  0000 C CNN
	1    3300 1750
	1    0    0    -1  
$EndComp
$Comp
L USBAB J1
U 1 1 58A3BDD2
P 6000 5000
F 0 "J1" H 5931 5487 60  0000 C CNN
F 1 "USBAB" H 5931 5381 60  0000 C CNN
F 2 "Connectors:USB_Micro-B_10103594-0001LF" H 700 2450 60  0001 C CNN
F 3 "" H 700 2450 60  0000 C CNN
	1    6000 5000
	1    0    0    -1  
$EndComp
$Comp
L ATmega32U4 U2
U 1 1 58A3D600
P 8650 2900
F 0 "U2" H 8625 4715 50  0000 C CNN
F 1 "ATmega32U4" H 8625 4624 50  0000 C CNN
F 2 "Housings_QFP:LQFP-44_10x10mm_Pitch0.8mm" H 1300 1100 50  0001 C CNN
F 3 "" H 1300 1100 50  0000 C CNN
	1    8650 2900
	1    0    0    -1  
$EndComp
$Comp
L GND #PWR01
U 1 1 58A3D8CE
P 7250 4400
F 0 "#PWR01" H 7300 4450 50  0001 C CNN
F 1 "GND" H 7255 4227 50  0000 C CNN
F 2 "" H -150 500 50  0000 C CNN
F 3 "" H -150 500 50  0000 C CNN
	1    7250 4400
	1    0    0    -1  
$EndComp
Text Label 7200 2450 0    60   ~ 0
GND
Text Label 7250 3750 0    60   ~ 0
GND
Text Label 6600 2750 0    60   ~ 0
VCC
$Comp
L R R4
U 1 1 58A3D96B
P 7050 2750
F 0 "R4" V 6843 2750 50  0000 C CNN
F 1 "10K" V 6934 2750 50  0000 C CNN
F 2 "Resistors_SMD:R_0603" V 80  -50 50  0001 C CNN
F 3 "" H 150 -50 50  0000 C CNN
	1    7050 2750
	0    1    1    0   
$EndComp
$Comp
L GND #PWR02
U 1 1 58A3DA3B
P 6650 2150
F 0 "#PWR02" H -350 100 50  0001 C CNN
F 1 "GND" H 6655 1977 50  0000 C CNN
F 2 "" H -350 350 50  0000 C CNN
F 3 "" H -350 350 50  0000 C CNN
	1    6650 2150
	1    0    0    -1  
$EndComp
Text Label 6650 1750 0    60   ~ 0
AREF
$Comp
L C C8
U 1 1 58A3DAC2
P 6650 1950
F 0 "C8" H 6765 1996 50  0000 L CNN
F 1 "0.1u" H 6765 1905 50  0000 L CNN
F 2 "Capacitors_SMD:C_0603" H 38  50  50  0001 C CNN
F 3 "" H 0   200 50  0000 C CNN
	1    6650 1950
	1    0    0    -1  
$EndComp
$Comp
L GND #PWR03
U 1 1 58A3DB97
P 6000 2750
F 0 "#PWR03" H -1000 700 50  0001 C CNN
F 1 "GND" H 6005 2577 50  0000 C CNN
F 2 "" H -1000 950 50  0000 C CNN
F 3 "" H -1000 950 50  0000 C CNN
	1    6000 2750
	1    0    0    -1  
$EndComp
$Comp
L C C5
U 1 1 58A3DBB7
P 6000 2550
F 0 "C5" H 6115 2596 50  0000 L CNN
F 1 "0.1u" H 6115 2505 50  0000 L CNN
F 2 "Capacitors_SMD:C_0603" H -612 650 50  0001 C CNN
F 3 "" H -650 800 50  0000 C CNN
	1    6000 2550
	1    0    0    -1  
$EndComp
$Comp
L VCC #PWR04
U 1 1 58A3DDAE
P 7150 950
F 0 "#PWR04" H 0   -600 50  0001 C CNN
F 1 "VCC" H 7167 1123 50  0000 C CNN
F 2 "" H 0   -450 50  0000 C CNN
F 3 "" H 0   -450 50  0000 C CNN
	1    7150 950 
	1    0    0    -1  
$EndComp
$Comp
L Crystal_Small Y1
U 1 1 58A3E1A4
P 6700 3400
F 0 "Y1" V 6654 3488 50  0000 L CNN
F 1 "Crystal_Small" V 6745 3488 50  0000 L CNN
F 2 "Crystals:Crystal_SMD_0603-2pin_6.0x3.5mm" H -2450 300 50  0001 C CNN
F 3 "" H -2450 300 50  0000 C CNN
	1    6700 3400
	0    1    1    0   
$EndComp
$Comp
L C C6
U 1 1 58A3E291
P 6350 3300
F 0 "C6" V 6098 3300 50  0000 C CNN
F 1 "22p" V 6189 3300 50  0000 C CNN
F 2 "Capacitors_SMD:C_0603" H -112 -600 50  0001 C CNN
F 3 "" H -150 -450 50  0000 C CNN
	1    6350 3300
	0    1    1    0   
$EndComp
$Comp
L C C7
U 1 1 58A3E2F8
P 6350 3500
F 0 "C7" V 6098 3500 50  0000 C CNN
F 1 "22p" V 6189 3500 50  0000 C CNN
F 2 "Capacitors_SMD:C_0603" H -112 -400 50  0001 C CNN
F 3 "" H -150 -250 50  0000 C CNN
	1    6350 3500
	0    1    1    0   
$EndComp
$Comp
L GND #PWR05
U 1 1 58A3E523
P 5950 3400
F 0 "#PWR05" H -300 -250 50  0001 C CNN
F 1 "GND" V 5955 3272 50  0000 R CNN
F 2 "" H -300 0   50  0000 C CNN
F 3 "" H -300 0   50  0000 C CNN
	1    5950 3400
	0    1    1    0   
$EndComp
Text Label 7200 2150 0    60   ~ 0
D+
Text Label 7200 2250 0    60   ~ 0
D-
Text Label 10050 3450 0    60   ~ 0
GND
Text Label 10050 2750 0    60   ~ 0
RX1
Text Label 10050 2850 0    60   ~ 0
TX0
Text Label 10050 2950 0    60   ~ 0
D4
Text Label 10050 2550 0    60   ~ 0
D3
Text Label 10050 2650 0    60   ~ 0
D2
$Comp
L VCC #PWR06
U 1 1 58A3F250
P 10900 3050
F 0 "#PWR06" H 10950 3100 50  0001 C CNN
F 1 "VCC" V 10917 3178 50  0000 L CNN
F 2 "" H 500 0   50  0000 C CNN
F 3 "" H 500 0   50  0000 C CNN
	1    10900 3050
	0    1    1    0   
$EndComp
$Comp
L LED D4
U 1 1 58A3F295
P 10600 3050
F 0 "D4" H 10591 3266 50  0000 C CNN
F 1 "LED" H 10591 3175 50  0000 C CNN
F 2 "LEDs:LED_0603" H 200 0   50  0001 C CNN
F 3 "" H 200 0   50  0000 C CNN
	1    10600 3050
	1    0    0    -1  
$EndComp
$Comp
L R R6
U 1 1 58A3F30B
P 10150 3050
F 0 "R6" V 10000 3200 50  0000 C CNN
F 1 "330" V 10100 3200 50  0000 C CNN
F 2 "Resistors_SMD:R_0603" V -120 0   50  0001 C CNN
F 3 "" H -50 0   50  0000 C CNN
	1    10150 3050
	0    1    1    0   
$EndComp
Text Label 10050 3250 0    60   ~ 0
D6
$Comp
L R R5
U 1 1 58A40BFA
P 10150 1350
F 0 "R5" V 9943 1350 50  0000 C CNN
F 1 "330" V 10034 1350 50  0000 C CNN
F 2 "Resistors_SMD:R_0603" V -20 0   50  0001 C CNN
F 3 "" H 50  0   50  0000 C CNN
	1    10150 1350
	0    1    1    0   
$EndComp
$Comp
L LED D3
U 1 1 58A40C88
P 10550 1350
F 0 "D3" H 10541 1566 50  0000 C CNN
F 1 "LED" H 10541 1475 50  0000 C CNN
F 2 "LEDs:LED_0603" H 100 0   50  0001 C CNN
F 3 "" H 100 0   50  0000 C CNN
	1    10550 1350
	1    0    0    -1  
$EndComp
$Comp
L VCC #PWR07
U 1 1 58A40CD8
P 10850 1350
F 0 "#PWR07" H 10900 1400 50  0001 C CNN
F 1 "VCC" V 10867 1478 50  0000 L CNN
F 2 "" H 300 0   50  0000 C CNN
F 3 "" H 300 0   50  0000 C CNN
	1    10850 1350
	0    1    1    0   
$EndComp
Text Label 10050 2250 0    60   ~ 0
D5
Text Label 10050 1950 0    60   ~ 0
D10
Text Label 10050 1850 0    60   ~ 0
D9
Text Label 10050 1750 0    60   ~ 0
D8
Text Label 10050 1650 0    60   ~ 0
MISO
Text Label 10050 1550 0    60   ~ 0
MOSI
Text Label 10050 1450 0    60   ~ 0
SCK
Text Label 10050 3550 0    60   ~ 0
D7
$Comp
L GND #PWR08
U 1 1 58A4260F
P 6400 5450
F 0 "#PWR08" H 6450 5500 50  0001 C CNN
F 1 "GND" H 6405 5277 50  0000 C CNN
F 2 "" H -200 -50 50  0000 C CNN
F 3 "" H -200 -50 50  0000 C CNN
	1    6400 5450
	1    0    0    -1  
$EndComp
Text Label 6900 5050 0    60   ~ 0
D+
Text Label 6900 4900 0    60   ~ 0
D-
$Comp
L R R2
U 1 1 58A42716
P 6600 4900
F 0 "R2" V 6393 4900 50  0000 C CNN
F 1 "22" V 6484 4900 50  0000 C CNN
F 2 "Resistors_SMD:R_0603" V -20 -50 50  0001 C CNN
F 3 "" H 50  -50 50  0000 C CNN
	1    6600 4900
	0    1    1    0   
$EndComp
$Comp
L R R3
U 1 1 58A4279F
P 6600 5050
F 0 "R3" V 6393 5050 50  0000 C CNN
F 1 "22" V 6484 5050 50  0000 C CNN
F 2 "Resistors_SMD:R_0603" V -20 100 50  0001 C CNN
F 3 "" H 50  100 50  0000 C CNN
	1    6600 5050
	0    1    1    0   
$EndComp
Wire Wire Line
	7400 3950 7250 3950
Wire Wire Line
	7250 3750 7250 4400
Wire Wire Line
	7400 4050 7250 4050
Connection ~ 7250 4050
Wire Wire Line
	7400 4150 7250 4150
Connection ~ 7250 4150
Wire Wire Line
	7400 4250 7250 4250
Connection ~ 7250 4250
Wire Wire Line
	7400 2450 7200 2450
Connection ~ 7250 3950
Wire Wire Line
	6600 2750 6900 2750
Wire Wire Line
	7400 2750 7200 2750
Wire Wire Line
	7400 1750 6650 1750
Wire Wire Line
	6650 1750 6650 1800
Wire Wire Line
	6650 2100 6650 2150
Wire Wire Line
	6000 2700 6000 2750
Wire Wire Line
	6000 2400 7000 2400
Wire Wire Line
	7000 2400 7000 2350
Wire Wire Line
	7000 2350 7400 2350
Wire Wire Line
	7150 1850 7400 1850
Wire Wire Line
	7150 950  7150 1850
Wire Wire Line
	7400 1650 7150 1650
Connection ~ 7150 1650
Wire Wire Line
	7400 1550 7150 1550
Connection ~ 7150 1550
Wire Wire Line
	7400 1450 7150 1450
Connection ~ 7150 1450
Wire Wire Line
	7400 3300 7400 3350
Wire Wire Line
	6500 3300 7400 3300
Wire Wire Line
	7400 3500 7400 3450
Wire Wire Line
	6500 3500 7400 3500
Connection ~ 6700 3300
Connection ~ 6700 3500
Wire Wire Line
	6200 3300 5950 3300
Wire Wire Line
	5950 3300 5950 3500
Wire Wire Line
	5950 3500 6200 3500
Connection ~ 5950 3400
Wire Wire Line
	7200 2150 7400 2150
Wire Wire Line
	7200 2250 7400 2250
Wire Wire Line
	10050 3450 9850 3450
Wire Wire Line
	10050 2550 9850 2550
Wire Wire Line
	9850 2650 10050 2650
Wire Wire Line
	10050 2750 9850 2750
Wire Wire Line
	9850 2850 10050 2850
Wire Wire Line
	10050 2950 9850 2950
Wire Wire Line
	9850 3050 10000 3050
Wire Wire Line
	10300 3050 10450 3050
Wire Wire Line
	10750 3050 10900 3050
Wire Wire Line
	9850 3250 10050 3250
Wire Wire Line
	7350 2050 7400 2050
Wire Wire Line
	7350 900  7350 2050
Wire Wire Line
	7400 1350 7350 1350
Connection ~ 7350 1350
Wire Wire Line
	10850 1350 10700 1350
Wire Wire Line
	10300 1350 10400 1350
Wire Wire Line
	9850 1350 10000 1350
Wire Wire Line
	9850 1450 10050 1450
Wire Wire Line
	9850 1550 10050 1550
Wire Wire Line
	9850 1650 10050 1650
Wire Wire Line
	9850 1750 10050 1750
Wire Wire Line
	9850 1850 10050 1850
Wire Wire Line
	9850 1950 10050 1950
Wire Wire Line
	9850 2250 10050 2250
Wire Wire Line
	10050 3550 9850 3550
Wire Wire Line
	6200 5100 6400 5100
Wire Wire Line
	6400 5100 6400 5450
Wire Wire Line
	6750 4900 6900 4900
Wire Wire Line
	6750 5050 6900 5050
Wire Wire Line
	6200 4900 6450 4900
Wire Wire Line
	6200 5000 6200 5050
Wire Wire Line
	6200 5050 6450 5050
Text Label 1900 5550 0    60   ~ 0
TX0
Text Label 1900 5450 0    60   ~ 0
RX1
Text Label 1900 5650 0    60   ~ 0
GND
Text Label 1900 5750 0    60   ~ 0
GND
Text Label 1900 5850 0    60   ~ 0
D2
Text Label 1900 5950 0    60   ~ 0
D3
Text Label 1900 6050 0    60   ~ 0
D4
Text Label 1900 6150 0    60   ~ 0
D5
Text Label 1900 6250 0    60   ~ 0
D6
Text Label 1900 6350 0    60   ~ 0
D7
Text Label 1900 6450 0    60   ~ 0
D8
Text Label 1900 6550 0    60   ~ 0
D9
Text Label 3700 5450 0    60   ~ 0
RAW
Text Label 3700 5550 0    60   ~ 0
GND
Text Label 3700 5750 0    60   ~ 0
VCC
Text Label 3550 6150 0    60   ~ 0
A3
Text Label 3550 6050 0    60   ~ 0
A2
Text Label 3550 5950 0    60   ~ 0
A1
Text Label 3550 5850 0    60   ~ 0
A0
Text Label 3550 6350 0    60   ~ 0
SCK
Text Label 3550 6550 0    60   ~ 0
MISO
Text Label 3550 6450 0    60   ~ 0
MOSI
Text Label 3550 6250 0    60   ~ 0
D10
Wire Wire Line
	1900 5450 2100 5450
Wire Wire Line
	2100 5550 1900 5550
Wire Wire Line
	1900 5650 2100 5650
Wire Wire Line
	2100 5750 1900 5750
Wire Wire Line
	1900 5850 2100 5850
Wire Wire Line
	1900 5950 2100 5950
Wire Wire Line
	2100 6050 1900 6050
Wire Wire Line
	1900 6150 2100 6150
Wire Wire Line
	2100 6250 1900 6250
Wire Wire Line
	1900 6350 2100 6350
Wire Wire Line
	2100 6450 1900 6450
Wire Wire Line
	1900 6550 2100 6550
Wire Wire Line
	3850 5450 3700 5450
Wire Wire Line
	3700 5550 3850 5550
Wire Wire Line
	3850 5750 3700 5750
Wire Wire Line
	3550 5850 3850 5850
Wire Wire Line
	3550 5950 3850 5950
Wire Wire Line
	3550 6050 3850 6050
Wire Wire Line
	3550 6150 3850 6150
Wire Wire Line
	3550 6250 3850 6250
Wire Wire Line
	3550 6350 3850 6350
Wire Wire Line
	3550 6450 3850 6450
Wire Wire Line
	3550 6550 3850 6550
NoConn ~ 3800 1950
Text Label 2050 1550 0    60   ~ 0
RAW
Wire Wire Line
	2000 1550 2800 1550
$Comp
L GND #PWR09
U 1 1 58A46A37
P 2700 2100
F 0 "#PWR09" H 150 0   50  0001 C CNN
F 1 "GND" H 2705 1927 50  0000 C CNN
F 2 "" H 150 250 50  0000 C CNN
F 3 "" H 150 250 50  0000 C CNN
	1    2700 2100
	1    0    0    -1  
$EndComp
$Comp
L GND #PWR010
U 1 1 58A46A7C
P 2450 2100
F 0 "#PWR010" H -100 0   50  0001 C CNN
F 1 "GND" H 2455 1927 50  0000 C CNN
F 2 "" H -100 250 50  0000 C CNN
F 3 "" H -100 250 50  0000 C CNN
	1    2450 2100
	1    0    0    -1  
$EndComp
Wire Wire Line
	2800 1950 2750 1950
Wire Wire Line
	2750 1950 2750 1550
Connection ~ 2750 1550
Wire Wire Line
	2800 1750 2700 1750
Wire Wire Line
	2700 1750 2700 2100
$Comp
L D D1
U 1 1 58A46C43
P 2200 1200
F 0 "D1" H 2200 984 50  0000 C CNN
F 1 "D" H 2200 1075 50  0000 C CNN
F 2 "Diodes_SMD:D_0603" H -100 0   50  0001 C CNN
F 3 "" H -100 0   50  0000 C CNN
	1    2200 1200
	-1   0    0    1   
$EndComp
$Comp
L Fuse F1
U 1 1 58A46CB5
P 1550 1200
F 0 "F1" V 1353 1200 50  0000 C CNN
F 1 "500m" V 1444 1200 50  0000 C CNN
F 2 "Fuse_Holders_and_Fuses:Fuse_SMD1206_Reflow" V -720 0   50  0001 C CNN
F 3 "" H -650 0   50  0000 C CNN
	1    1550 1200
	0    1    1    0   
$EndComp
$Comp
L VCC #PWR011
U 1 1 58A46D6A
P 1050 1200
F 0 "#PWR011" H 0   -150 50  0001 C CNN
F 1 "VCC" V 1068 1327 50  0000 L CNN
F 2 "" H 0   0   50  0000 C CNN
F 3 "" H 0   0   50  0000 C CNN
	1    1050 1200
	0    -1   -1   0   
$EndComp
Wire Wire Line
	1050 1200 1400 1200
Wire Wire Line
	1700 1200 2050 1200
$Comp
L CP1 C1
U 1 1 58A46FB3
P 2450 1850
F 0 "C1" H 2565 1896 50  0000 L CNN
F 1 "10u" H 2565 1805 50  0000 L CNN
F 2 "Capacitors_SMD:C_0603" H 0   0   50  0001 C CNN
F 3 "" H 0   0   50  0000 C CNN
	1    2450 1850
	1    0    0    -1  
$EndComp
Wire Wire Line
	2450 2000 2450 2100
Wire Wire Line
	2450 1200 2450 1700
Connection ~ 2450 1550
Wire Wire Line
	2450 1200 2350 1200
$Comp
L GND #PWR012
U 1 1 58A4720A
P 5050 2500
F 0 "#PWR012" H 700 250 50  0001 C CNN
F 1 "GND" H 5055 2327 50  0000 C CNN
F 2 "" H 700 500 50  0000 C CNN
F 3 "" H 700 500 50  0000 C CNN
	1    5050 2500
	1    0    0    -1  
$EndComp
$Comp
L LED D2
U 1 1 58A47246
P 5050 2250
F 0 "D2" V 5088 2133 50  0000 R CNN
F 1 "LED" V 4997 2133 50  0000 R CNN
F 2 "LEDs:LED_0603" H 350 50  50  0001 C CNN
F 3 "" H 350 50  50  0000 C CNN
	1    5050 2250
	0    -1   -1   0   
$EndComp
$Comp
L C C3
U 1 1 58A47773
P 4250 1800
F 0 "C3" H 4365 1846 50  0000 L CNN
F 1 "1u" H 4365 1755 50  0000 L CNN
F 2 "Capacitors_SMD:C_0603" H -62 -300 50  0001 C CNN
F 3 "" H -100 -150 50  0000 C CNN
	1    4250 1800
	1    0    0    -1  
$EndComp
$Comp
L C C4
U 1 1 58A477DB
P 4550 1800
F 0 "C4" H 4665 1846 50  0000 L CNN
F 1 "0.1u" H 4665 1755 50  0000 L CNN
F 2 "Capacitors_SMD:C_0603" H 338 -150 50  0001 C CNN
F 3 "" H 300 0   50  0000 C CNN
	1    4550 1800
	1    0    0    -1  
$EndComp
$Comp
L GND #PWR013
U 1 1 58A478CA
P 4550 2050
F 0 "#PWR013" H 200 -200 50  0001 C CNN
F 1 "GND" H 4555 1877 50  0000 C CNN
F 2 "" H 200 50  50  0000 C CNN
F 3 "" H 200 50  50  0000 C CNN
	1    4550 2050
	1    0    0    -1  
$EndComp
$Comp
L GND #PWR014
U 1 1 58A4791A
P 4250 2050
F 0 "#PWR014" H -100 -200 50  0001 C CNN
F 1 "GND" H 4255 1877 50  0000 C CNN
F 2 "" H -100 50  50  0000 C CNN
F 3 "" H -100 50  50  0000 C CNN
	1    4250 2050
	1    0    0    -1  
$EndComp
$Comp
L GND #PWR015
U 1 1 58A4796A
P 3950 2050
F 0 "#PWR015" H -400 -200 50  0001 C CNN
F 1 "GND" H 3955 1877 50  0000 C CNN
F 2 "" H -400 50  50  0000 C CNN
F 3 "" H -400 50  50  0000 C CNN
	1    3950 2050
	1    0    0    -1  
$EndComp
$Comp
L R R1
U 1 1 58A47A3E
P 5050 1850
F 0 "R1" H 5120 1896 50  0000 L CNN
F 1 "1K" H 5120 1805 50  0000 L CNN
F 2 "Resistors_SMD:R_0603" V -20 50  50  0001 C CNN
F 3 "" H 50  50  50  0000 C CNN
	1    5050 1850
	1    0    0    -1  
$EndComp
$Comp
L VCC #PWR016
U 1 1 58A47B28
P 5050 1250
F 0 "#PWR016" H 100 -450 50  0001 C CNN
F 1 "VCC" H 5067 1423 50  0000 C CNN
F 2 "" H 100 -300 50  0000 C CNN
F 3 "" H 100 -300 50  0000 C CNN
	1    5050 1250
	1    0    0    -1  
$EndComp
Wire Wire Line
	5050 1250 5050 1700
Wire Wire Line
	5050 2000 5050 2100
Wire Wire Line
	5050 2400 5050 2500
$Comp
L CP1 C2
U 1 1 58A47D43
P 3950 1800
F 0 "C2" H 4065 1846 50  0000 L CNN
F 1 "10u" H 4065 1755 50  0000 L CNN
F 2 "Capacitors_SMD:C_0603" H 1500 -50 50  0001 C CNN
F 3 "" H 1500 -50 50  0000 C CNN
	1    3950 1800
	1    0    0    -1  
$EndComp
Wire Wire Line
	3950 1950 3950 2050
Wire Wire Line
	3800 1550 5050 1550
Connection ~ 5050 1550
Connection ~ 3950 1550
Wire Wire Line
	4250 1650 4250 1550
Connection ~ 4250 1550
Wire Wire Line
	4550 850  4550 1650
Connection ~ 4550 1550
Wire Wire Line
	4250 1950 4250 2050
Wire Wire Line
	4550 2050 4550 1950
$Comp
L Jumper JP1
U 1 1 58A48247
P 3400 850
F 0 "JP1" H 3400 1114 50  0000 C CNN
F 1 "Jumper" H 3400 1023 50  0000 C CNN
F 2 "Pin_Headers:Pin_Header_Straight_1x02_Pitch1.27mm" H 300 -200 50  0001 C CNN
F 3 "" H 300 -200 50  0000 C CNN
	1    3400 850 
	1    0    0    -1  
$EndComp
Wire Wire Line
	3100 850  1900 850 
Wire Wire Line
	1900 850  1900 1200
Connection ~ 1900 1200
Wire Wire Line
	4550 850  3700 850 
Wire Wire Line
	6200 4800 6350 4800
NoConn ~ 6200 5200
Text Label 6350 4800 0    60   ~ 0
UVCC
Text Label 7350 900  0    60   ~ 0
UVCC
NoConn ~ 3850 5650
$Comp
L PWR_FLAG #FLG017
U 1 1 58A55388
P 2000 1550
F 0 "#FLG017" H -2650 395 50  0001 C CNN
F 1 "PWR_FLAG" V 2000 1728 50  0000 L CNN
F 2 "" H -2650 300 50  0000 C CNN
F 3 "" H -2650 300 50  0000 C CNN
	1    2000 1550
	0    -1   -1   0   
$EndComp
NoConn ~ 9850 3150
NoConn ~ 9850 3750
NoConn ~ 9850 3850
NoConn ~ 9850 2350
NoConn ~ 9850 2050
Wire Wire Line
	3950 1650 3950 1550
Wire Wire Line
	10050 3950 9850 3950
Wire Wire Line
	10050 4050 9850 4050
Wire Wire Line
	10050 4150 9850 4150
Wire Wire Line
	10050 4250 9850 4250
Text Label 10050 4250 0    60   ~ 0
A0
Text Label 10050 4150 0    60   ~ 0
A1
Text Label 10050 4050 0    60   ~ 0
A2
Text Label 10050 3950 0    60   ~ 0
A3
$EndSCHEMATC
